Take-home_Ex3 – ISSS608 Visual Analytics & Applications
…
3.2 Remove missing values

weather <- weather %>% 
  drop_na()

3.3 Convert to time-series format

ts_data <- weather %>%
  as_tsibble(index = date, key = station) %>%
  fill_gaps()

ts_data

# A tsibble: 5,216 x 14 [1D]
# Key:       station [16]
   station    year month   day daily_rainfall_total_mm highest_30_min_rainfall…¹
   <chr>     <dbl> <dbl> <dbl>                   <dbl>                     <dbl>
 1 Admiralty  2024     1     1                     8.5                       2  
 2 Admiralty  2024     1     2                     0.5                       0.5
 3 Admiralty  2024     1     3                     1.5                       1.5
 4 Admiralty  2024     1     4                    67.6                      10.6
 5 Admiralty  2024     1     5                     5.4                       2.2
 6 Admiralty  2024     1     6                     0.8                       0.8
 7 Admiralty  2024     1     7                    69.6                      17.4
 8 Admiralty  2024     1     8                     1.6                       1.2
 9 Admiralty  2024     1     9                    49                        17.2
10 Admiralty  2024     1    10                    63.2                      17.4
# ℹ 5,206 more rows
# ℹ abbreviated name: ¹​highest_30_min_rainfall_mm
# ℹ 8 more variables: highest_60_min_rainfall_mm <dbl>,
#   highest_120_min_rainfall_mm <dbl>, mean_temperature_c <dbl>,
#   maximum_temperature_c <dbl>, minimum_temperature_c <dbl>,
#   mean_wind_speed_km_h <dbl>, max_wind_speed_km_h <dbl>, date <date>
…
7.1 Data Sampling

Changi_ts <- ts_data %>%
  filter(station == "Changi") %>% 
  mutate(Type = if_else(
    date >= "2024-10-01", 
    "Hold-out", "Training"))

Changi_train <- Changi_ts %>%
  filter(date < "2024-10-01")

Changi_train %>% fill_gaps()

# A tsibble: 274 x 15 [1D]
# Key:       station [1]
   station  year month   day daily_rainfall_total_mm highest_30_min_rainfall_mm
   <chr>   <dbl> <dbl> <dbl>                   <dbl>                      <dbl>
 1 Changi   2024     1     1                    49.6                       24.6
 2 Changi   2024     1     2                     0.4                        0.4
 3 Changi   2024     1     3                     8.8                        8.2
 4 Changi   2024     1     4                    80.6                       17.6
 5 Changi   2024     1     5                     4.2                        3  
 6 Changi   2024     1     6                     0.6                        0.6
 7 Changi   2024     1     7                    64                         12.8
 8 Changi   2024     1     8                     0                          0  
 9 Changi   2024     1     9                     2.6                        0.8
10 Changi   2024     1    10                    63.2                       19  
# ℹ 264 more rows
# ℹ 9 more variables: highest_60_min_rainfall_mm <dbl>,
#   highest_120_min_rainfall_mm <dbl>, mean_temperature_c <dbl>,
#   maximum_temperature_c <dbl>, minimum_temperature_c <dbl>,
#   mean_wind_speed_km_h <dbl>, max_wind_speed_km_h <dbl>, date <date>,
#   Type <chr>
…
multi_ETS %>%
  tidy()

# A tibble: 35 × 4
   station .model      term   estimate
   <chr>   <chr>       <chr>     <dbl>
 1 Changi  SES         alpha  0.285   
 2 Changi  SES         l[0]  26.3     
 3 Changi  Holt        alpha  0.281   
 4 Changi  Holt        beta   0.000100
 5 Changi  Holt        l[0]  26.3     
 6 Changi  Holt        b[0]   0.00858 
 7 Changi  damped Holt alpha  0.279   
 8 Changi  damped Holt beta   0.000100
 9 Changi  damped Holt phi    0.976   
10 Changi  damped Holt l[0]  25.8     
# ℹ 25 more rows
…
