Take-home_Ex2 – ISSS608
…
3.3.3 Merge datasets on both sheets using left join to preserve all rows

total_exports <- left_join(domestic_exports_clean, re_exports_clean, by = "Data Series", suffix = c("_domestic", "_re"))

3.3.4 Sum for domestic exports and re-exports

total_exports <- total_exports %>%
  mutate(across(matches("_domestic$"), ~ . + get(sub("_domestic$", "_re", cur_column())), .names = "{.col}_total")) %>%
  select(`Data Series`, ends_with("_total")) %>%
  rename_with(~ gsub("_(domestic|re)_total", "_total", .x))

total_exports

# A tibble: 160 × 266
   `Data Series`       `2025 Jan_total` `2024 Dec_total` `2024 Nov_total`
   <chr>                          <dbl>            <dbl>            <dbl>
 1 Total All Markets            59408.           60143.           58330. 
 2 America                       7373.            7501.            6657. 
 3 Antigua And Barbuda             10.7              7.2              8.3
 4 Argentina                       31               28.3             23.3
 5 Bahamas                         61.2             49.4             64.2
 6 Bermuda                          2.8              7.7              0.5
 7 Brazil                         244.             207.             187. 
 8 Canada                         113.             103.             155. 
 9 Chile                           14               13.7             10.7
10 Colombia                        10.7             16.4             12.5
# ℹ 150 more rows
# ℹ 262 more variables: `2024 Oct_total` <dbl>, `2024 Sep_total` <dbl>,
#   `2024 Aug_total` <dbl>, `2024 Jul_total` <dbl>, `2024 Jun_total` <dbl>,
#   `2024 May_total` <dbl>, `2024 Apr_total` <dbl>, `2024 Mar_total` <dbl>,
#   `2024 Feb_total` <dbl>, `2024 Jan_total` <dbl>, `2023 Dec_total` <dbl>,
#   `2023 Nov_total` <dbl>, `2023 Oct_total` <dbl>, `2023 Sep_total` <dbl>,
#   `2023 Aug_total` <dbl>, `2023 Jul_total` <dbl>, `2023 Jun_total` <dbl>, …
…
imports_modified <- imports_modified %>%
  mutate(Year = year(Period))

imports_modified <- imports_modified %>%
  select(Year, Countries, Value)

imports_modified <- imports_modified %>%
  group_by(Countries, Year) %>%
  summarise(Value = sum(Value, na.rm = TRUE))

imports_modified

# A tibble: 3,680 × 3
# Groups:   Countries [160]
   Countries    Year Value
   <chr>       <dbl> <dbl>
 1 Afghanistan  2003   0.4
 2 Afghanistan  2004   0.8
 3 Afghanistan  2005   4.3
 4 Afghanistan  2006   7.4
 5 Afghanistan  2007   9.6
 6 Afghanistan  2008   0  
 7 Afghanistan  2009   1  
 8 Afghanistan  2010   0.5
 9 Afghanistan  2011   3.3
10 Afghanistan  2012   0.9
# ℹ 3,670 more rows
…
totalexports_modified <- totalexports_modified %>%
  mutate(Year = year(Period))

totalexports_modified <- totalexports_modified %>%
  select(Year, Countries, Value)

totalexports_modified <- totalexports_modified %>%
  group_by(Countries, Year) %>%
  summarise(Value = sum(Value, na.rm = TRUE))

totalexports_modified

# A tibble: 3,680 × 3
# Groups:   Countries [160]
   Countries    Year Value
   <chr>       <dbl> <dbl>
 1 Afghanistan  2003   3.4
 2 Afghanistan  2004   2.2
 3 Afghanistan  2005   6.2
 4 Afghanistan  2006   9.6
 5 Afghanistan  2007  12.2
 6 Afghanistan  2008   6.8
 7 Afghanistan  2009  10  
 8 Afghanistan  2010  26.2
 9 Afghanistan  2011  34.8
10 Afghanistan  2012  16  
# ℹ 3,670 more rows

3.3.5.3 Combining Total Imports and Total Exports for Total Trade Value by Country and Year

colnames(imports_modified) <- colnames(totalexports_modified)

Total_Trade <- left_join(imports_modified, totalexports_modified, by = c("Countries", "Year"), suffix = c("_Imports", "_TotalExports"))

Total_Trade <- Total_Trade %>%
  mutate(Total_Trade = Value_Imports + Value_TotalExports)
Total_Trade

# A tibble: 3,680 × 5
# Groups:   Countries [160]
   Countries    Year Value_Imports Value_TotalExports Total_Trade
   <chr>       <dbl>         <dbl>              <dbl>       <dbl>
 1 Afghanistan  2003           0.4                3.4         3.8
 2 Afghanistan  2004           0.8                2.2         3  
 3 Afghanistan  2005           4.3                6.2        10.5
 4 Afghanistan  2006           7.4                9.6        17  
 5 Afghanistan  2007           9.6               12.2        21.8
 6 Afghanistan  2008           0                  6.8         6.8
 7 Afghanistan  2009           1                 10          11  
 8 Afghanistan  2010           0.5               26.2        26.7
 9 Afghanistan  2011           3.3               34.8        38.1
10 Afghanistan  2012           0.9               16          16.9
# ℹ 3,670 more rows
…
merchandise_trade_type <- merchandise_trade_combined %>%
  pivot_longer(cols = -c('Commodity Sections', Type), names_to = "Date", values_to = "Value")

merchandise_trade_type

# A tibble: 2,400 × 4
   `Commodity Sections` Type   Date       Value
   <chr>                <chr>  <chr>      <dbl>
 1 Beverages & Tobacco  Import 2024 Dec 851520.
 2 Beverages & Tobacco  Import 2024 Nov 771873.
 3 Beverages & Tobacco  Import 2024 Oct 808858.
 4 Beverages & Tobacco  Import 2024 Sep 808112.
 5 Beverages & Tobacco  Import 2024 Aug 867097.
 6 Beverages & Tobacco  Import 2024 Jul 921720.
 7 Beverages & Tobacco  Import 2024 Jun 746814.
 8 Beverages & Tobacco  Import 2024 May 755585.
 9 Beverages & Tobacco  Import 2024 Apr 758158.
10 Beverages & Tobacco  Import 2024 Mar 753798 
# ℹ 2,390 more rows

library(tidyverse)
library(lubridate)

merchandise_trade_type <- merchandise_trade_combined %>%
  pivot_longer(cols = -c('Commodity Sections', Type), names_to = "Date", values_to = "Value") %>%
  mutate(Year = year(ym(Date)))  # Extract year from 'Date'

merchandise_trade_by_year <- merchandise_trade_type %>%
  group_by(`Commodity Sections`, Type, Year) %>%
  summarise(Value = sum(Value, na.rm = TRUE), .groups = 'drop')

merchandise_trade_by_year

# A tibble: 200 × 4
   `Commodity Sections`                 Type    Year    Value
   <chr>                                <chr>  <dbl>    <dbl>
 1 Animal & Vegetable Oils Fats & Waxes Export  2015 1080368.
 2 Animal & Vegetable Oils Fats & Waxes Export  2016 1302809.
 3 Animal & Vegetable Oils Fats & Waxes Export  2017 1417766.
 4 Animal & Vegetable Oils Fats & Waxes Export  2018 1243608.
 5 Animal & Vegetable Oils Fats & Waxes Export  2019 1665771.
 6 Animal & Vegetable Oils Fats & Waxes Export  2020 2104569.
 7 Animal & Vegetable Oils Fats & Waxes Export  2021 2999619.
 8 Animal & Vegetable Oils Fats & Waxes Export  2022 3942328.
 9 Animal & Vegetable Oils Fats & Waxes Export  2023 3574353.
10 Animal & Vegetable Oils Fats & Waxes Export  2024 3098804.
# ℹ 190 more rows
…
imports_data <- merchandise_trade_by_year %>%
  filter(Type == "Import") %>%
  select(`Commodity Sections`, Year, Import_Value = Value)

combined_commodity_data <- left_join(exports_data, imports_data, by = c("Commodity Sections", "Year"))

combined_commodity_data <- combined_commodity_data %>%
  mutate(Total = Import_Value + Export_Value)

combined_commodity_data

# A tibble: 100 × 5
   `Commodity Sections`                  Year Export_Value Import_Value    Total
   <chr>                                <dbl>        <dbl>        <dbl>    <dbl>
 1 Animal & Vegetable Oils Fats & Waxes  2015     1080368.     1355164. 2435533.
 2 Animal & Vegetable Oils Fats & Waxes  2016     1302809.     1551932. 2854741.
 3 Animal & Vegetable Oils Fats & Waxes  2017     1417766.     1679301. 3097067.
 4 Animal & Vegetable Oils Fats & Waxes  2018     1243608.     1501732. 2745341.
 5 Animal & Vegetable Oils Fats & Waxes  2019     1665771.     1903311. 3569082.
 6 Animal & Vegetable Oils Fats & Waxes  2020     2104569.     2353922. 4458490.
 7 Animal & Vegetable Oils Fats & Waxes  2021     2999619.     3312861. 6312480.
 8 Animal & Vegetable Oils Fats & Waxes  2022     3942328.     4347153. 8289480.
 9 Animal & Vegetable Oils Fats & Waxes  2023     3574353.     3886116. 7460468.
10 Animal & Vegetable Oils Fats & Waxes  2024     3098804.     3370374. 6469177.
# ℹ 90 more rows
…
