Take-home Exercise 1: Heart Attack in Japan (Youth vs Adult) – ISSS608-VAA
…
health <- read_csv("data/japan_heart_attack_dataset.csv")

The dataset used for this analysis consists of 30,000 individual records, each providing a comprehensive range of health-related variables such as age, gender, cholesterol levels, blood pressure, heart rate, and lifestyle factors like smoking history, physical activity, and alcohol consumptions. It allows for detailed examination of the relationship between these factors and the occurrence of heart attacks in Japan. By comparing youth group (18-35 years old) and adult (36+ years) populations, we aim to uncover the key differences in heart attack risk factor, providing valuable insights on how lifestyle choices and physical metrics vary across age groups and influence cardiovascular health.

3.3 Data Cleaning

3.3.1 Remove the “Extra_Column” column

The dataset consists of 15 extra columns that do not serve any purpose, thus we need to remove those columns for data cleaning purpose.

health_clean <- health %>% 
  select(-starts_with("Extra_Column"))
health_clean

# A tibble: 30,000 × 17
     Age Gender Region Smoking_History Diabetes_History Hypertension_History
   <dbl> <chr>  <chr>  <chr>           <chr>            <chr>               
 1    56 Male   Urban  Yes             No               No                  
 2    69 Male   Urban  No              No               No                  
 3    46 Male   Rural  Yes             No               No                  
 4    32 Female Urban  No              No               No                  
 5    60 Female Rural  No              No               No                  
 6    25 Female Rural  No              No               No                  
 7    78 Male   Urban  No              Yes              Yes                 
 8    38 Female Urban  Yes             No               No                  
 9    56 Male   Rural  No              No               Yes                 
10    75 Male   Urban  No              No               No                  
# ℹ 29,990 more rows
# ℹ 11 more variables: Cholesterol_Level <dbl>, Physical_Activity <chr>,
#   Diet_Quality <chr>, Alcohol_Consumption <chr>, Stress_Levels <dbl>,
#   BMI <dbl>, Heart_Rate <dbl>, Systolic_BP <dbl>, Diastolic_BP <dbl>,
#   Family_History <chr>, Heart_Attack_Occurrence <chr>

3.3.2 Check and remove and duplicated data

sum(duplicated(health))

[1] 0

health_clean <- health %>%
  distinct()
health_clean

# A tibble: 30,000 × 32
     Age Gender Region Smoking_History Diabetes_History Hypertension_History
   <dbl> <chr>  <chr>  <chr>           <chr>            <chr>               
 1    56 Male   Urban  Yes             No               No                  
 2    69 Male   Urban  No              No               No                  
 3    46 Male   Rural  Yes             No               No                  
 4    32 Female Urban  No              No               No                  
 5    60 Female Rural  No              No               No                  
 6    25 Female Rural  No              No               No                  
 7    78 Male   Urban  No              Yes              Yes                 
 8    38 Female Urban  Yes             No               No                  
 9    56 Male   Rural  No              No               Yes                 
10    75 Male   Urban  No              No               No                  
# ℹ 29,990 more rows
# ℹ 26 more variables: Cholesterol_Level <dbl>, Physical_Activity <chr>,
#   Diet_Quality <chr>, Alcohol_Consumption <chr>, Stress_Levels <dbl>,
#   BMI <dbl>, Heart_Rate <dbl>, Systolic_BP <dbl>, Diastolic_BP <dbl>,
#   Family_History <chr>, Heart_Attack_Occurrence <chr>, Extra_Column_1 <dbl>,
#   Extra_Column_2 <dbl>, Extra_Column_3 <dbl>, Extra_Column_4 <dbl>,
#   Extra_Column_5 <dbl>, Extra_Column_6 <dbl>, Extra_Column_7 <dbl>, …
…
The dataset contains 2,964 cases where a heart attack occurred (Yes), compared to 27,036 cases where no heart attack occurred (No).

For this analysis, we will focus only on the “Yes” cases, as our primary goal is to examine the relationship between health and lifestyle factors that contribute to heart attacks. By analyzing individuals who have experienced a heart attack, we aim to compare risk factors between the youth group (18-35 years old) and the adult group (36+ years). This approach allows us to identify key differences in cardiovascular risk factors across age groups, providing insights into how lifestyle choices and physiological metrics influence heart attack occurrences in Japan.

3.6 Filtering Dataset for Heart Attack Cases

This step isolates only the records where a heart attack has occurred (Yes), allowing for a focused analysis on the contributing health and lifestyle factors.

heart_attack_yes <- health %>% filter(Heart_Attack_Occurrence == "Yes")

heart_attack_yes

# A tibble: 2,964 × 33
     Age Gender Region Smoking_History Diabetes_History Hypertension_History
   <dbl> <chr>  <chr>  <chr>           <chr>            <chr>               
 1    56 Male   Rural  No              No               Yes                 
 2    75 Male   Urban  No              No               No                  
 3    78 Female Urban  No              No               Yes                 
 4    61 Male   Urban  Yes             No               No                  
 5    44 Male   Urban  No              Yes              No                  
 6    61 Female Urban  No              No               No                  
 7    21 Male   Rural  No              No               No                  
 8    61 Female Urban  No              No               No                  
 9    31 Female Urban  Yes             No               Yes                 
10    51 Male   Urban  No              No               No                  
# ℹ 2,954 more rows
# ℹ 27 more variables: Cholesterol_Level <dbl>, Physical_Activity <chr>,
#   Diet_Quality <chr>, Alcohol_Consumption <chr>, Stress_Levels <dbl>,
#   BMI <dbl>, Heart_Rate <dbl>, Systolic_BP <dbl>, Diastolic_BP <dbl>,
#   Family_History <chr>, Heart_Attack_Occurrence <chr>, Extra_Column_1 <dbl>,
#   Extra_Column_2 <dbl>, Extra_Column_3 <dbl>, Extra_Column_4 <dbl>,
#   Extra_Column_5 <dbl>, Extra_Column_6 <dbl>, Extra_Column_7 <dbl>, …
…
